<?xml version="1.0" encoding="UTF-8"?>
<!DOCTYPE svg PUBLIC "-//W3C//DTD SVG 1.1//EN" "http://www.w3.org/Graphics/SVG/1.1/DTD/svg11.dtd">
                <svg
                    width='30px' height='30px' viewBox='0 0 437.775 437.774'> 
                    <path
                        d='M316.722,29.761c66.852,0,121.053,54.202,121.053,121.041c0,110.478-218.893,257.212-218.893,257.212S0,266.569,0,150.801C0,67.584,54.202,29.761,121.041,29.761c40.262,0,75.827,19.745,97.841,49.976C240.899,49.506,276.47,29.761,316.722,29.761z'
                        fill='black'
                    />
                </svg>